\relax 
\providecommand*{\memsetcounter}[2]{}
\@input{preface.aux}
\@writefile{toc}{\contentsline {chapter}{Contents}{3}{}\protected@file@percent }
\@input{lessons/lesson01.aux}
\@input{lessons/lesson02.aux}
\@input{lessons/lesson03.aux}
\@input{lessons/lesson04.aux}
\@input{lessons/lesson05.aux}
\@input{lessons/lesson06.aux}
\@input{lessons/lesson07.aux}
\@input{lessons/lesson08.aux}
\@input{lessons/lesson09.aux}
\@input{lessons/lesson10.aux}
\@input{lessons/lesson11.aux}
\@input{lessons/lesson12.aux}
\@input{lessons/lesson13.aux}
\@input{lessons/lesson14.aux}
\@input{lessons/lesson15.aux}
\@input{lessons/lesson16.aux}
\@input{lessons/lesson17.aux}
\@input{lessons/lesson18.aux}
\@input{lessons/lesson19.aux}
\@input{lessons/lesson20.aux}
\@input{lessons/lesson21.aux}
\@input{lessons/lesson22.aux}
\@input{lessons/lesson23.aux}
\@input{lessons/lesson24.aux}
\@input{lessons/lesson25.aux}
\@input{lessons/lesson26.aux}
\@input{lessons/lesson27.aux}
\@input{lessons/lesson28.aux}
\@input{lessons/lesson29.aux}
\@input{lessons/lesson30.aux}
\@input{lessons/lesson31.aux}
\@input{lessons/lesson32.aux}
\@input{lessons/lesson33.aux}
\@input{lessons/lesson34.aux}
\@input{lessons/lesson35.aux}
\@input{lessons/lesson36.aux}
\@input{lessons/lesson37.aux}
\@input{lessons/lesson38.aux}
\@input{lessons/lesson39.aux}
\@input{lessons/lesson40.aux}
\@input{lessons/lesson41.aux}
\@input{lessons/lesson42.aux}
\@input{lessons/lesson43.aux}
\@input{lessons/lesson44.aux}
\@input{lessons/lesson45.aux}
\@input{lessons/lesson46.aux}
\@input{lessons/lesson47.aux}
\@input{lessons/lesson48.aux}
\@input{lessons/lesson49.aux}
\@input{lessons/lesson50.aux}
\@input{lessons/lesson51.aux}
\@input{lessons/lesson52.aux}
\@input{lessons/lesson53.aux}
\@input{lessons/lesson54.aux}
\@input{lessons/lesson55.aux}
\@input{lessons/lesson56.aux}
\@input{lessons/lesson57.aux}
\@input{lessons/lesson58.aux}
\@input{lessons/lesson59.aux}
\@input{lessons/lesson60.aux}
\memsetcounter{lastsheet}{68}
\memsetcounter{lastpage}{68}
\gdef \@abspage@last{68}
