\relax 
\@writefile{lof}{\addvspace {10pt}}
\@writefile{lot}{\addvspace {10pt}}
\@writefile{toc}{\contentsline {chapter}{\chapternumberline {1}Pronunciation}{6}{}\protected@file@percent }
\@writefile{toc}{\contentsline {section}{\numberline {1.1}Letters.}{6}{}\protected@file@percent }
\@writefile{toc}{\contentsline {section}{\numberline {1.2}Pronunciation of Latin.}{6}{}\protected@file@percent }
\@writefile{toc}{\contentsline {subsection}{Roman Method.}{6}{}\protected@file@percent }
\@writefile{toc}{\contentsline {subsection}{Continental Method.}{7}{}\protected@file@percent }
\@writefile{toc}{\contentsline {subsubsection}{Vowels:}{7}{}\protected@file@percent }
\@writefile{toc}{\contentsline {subsubsection}{Diphthongs:}{7}{}\protected@file@percent }
\@writefile{toc}{\contentsline {subsubsection}{Consonants:}{7}{}\protected@file@percent }
\@writefile{toc}{\contentsline {section}{\numberline {1.3}Syllables.}{7}{}\protected@file@percent }
\@writefile{toc}{\contentsline {section}{\numberline {1.4}Quantity.}{7}{}\protected@file@percent }
\@writefile{toc}{\contentsline {section}{\numberline {1.5}Accent.}{8}{}\protected@file@percent }
\@setckpt{lessons/lesson01}{
\setcounter{page}{9}
\setcounter{equation}{0}
\setcounter{enumi}{0}
\setcounter{enumii}{0}
\setcounter{enumiii}{0}
\setcounter{enumiv}{0}
\setcounter{footnote}{0}
\setcounter{mpfootnote}{0}
\setcounter{@memmarkcntra}{0}
\setcounter{storedpagenumber}{1}
\setcounter{book}{0}
\setcounter{part}{0}
\setcounter{chapter}{1}
\setcounter{section}{5}
\setcounter{subsection}{0}
\setcounter{subsubsection}{0}
\setcounter{paragraph}{0}
\setcounter{subparagraph}{0}
\setcounter{@ppsavesec}{0}
\setcounter{@ppsaveapp}{0}
\setcounter{vslineno}{0}
\setcounter{poemline}{0}
\setcounter{modulo@vs}{0}
\setcounter{memfvsline}{0}
\setcounter{verse}{0}
\setcounter{chrsinstr}{0}
\setcounter{poem}{0}
\setcounter{newflo@tctr}{4}
\setcounter{@contsubnum}{0}
\setcounter{section@level}{0}
\setcounter{maxsecnumdepth}{1}
\setcounter{sidefootnote}{0}
\setcounter{pagenote}{0}
\setcounter{pagenoteshadow}{0}
\setcounter{memfbvline}{0}
\setcounter{bvlinectr}{0}
\setcounter{cp@cntr}{0}
\setcounter{ism@mctr}{0}
\setcounter{xsm@mctr}{0}
\setcounter{csm@mctr}{0}
\setcounter{ksm@mctr}{0}
\setcounter{xksm@mctr}{0}
\setcounter{cksm@mctr}{0}
\setcounter{msm@mctr}{0}
\setcounter{xmsm@mctr}{0}
\setcounter{cmsm@mctr}{0}
\setcounter{bsm@mctr}{0}
\setcounter{workm@mctr}{0}
\setcounter{sheetsequence}{9}
\setcounter{lastsheet}{68}
\setcounter{lastpage}{68}
\setcounter{figure}{0}
\setcounter{lofdepth}{1}
\setcounter{table}{0}
\setcounter{lotdepth}{1}
\setcounter{grammar}{0}
}
